G04 DipTrace 2.4.0.2*
%INstencil_top.gbr*%
%MOMM*%
%ADD50R,2.126X3.226*%
%ADD52R,2.126X0.926*%
%ADD54R,1.976X0.576*%
%ADD60R,1.776X0.376*%
%ADD62R,1.026X0.626*%
%ADD80R,0.576X1.076*%
%ADD82R,1.076X0.576*%
%ADD84R,1.276X1.476*%
%ADD86R,1.576X1.776*%
%ADD88R,1.476X1.276*%
%ADD90R,1.776X1.576*%
%FSLAX53Y53*%
G04*
G71*
G90*
G75*
G01*
%LNTopPaste*%
%LPD*%
D90*
X-46995Y4922D3*
Y2122D3*
D88*
X-44296Y3493D3*
Y1593D3*
X-25085Y7144D3*
Y9044D3*
X-19687Y7144D3*
Y9044D3*
D86*
X-19846Y-9367D3*
X-17046D3*
D84*
X-56674Y-7780D3*
X-54774D3*
X-33817Y-6033D3*
X-31917D3*
X-10479Y1429D3*
X-12379D3*
D88*
X-5716Y7303D3*
Y5403D3*
X-31912Y2382D3*
Y4282D3*
Y-476D3*
Y-2376D3*
D84*
X-51123Y3334D3*
X-53023D3*
D82*
X-50647Y-953D3*
Y-3D3*
Y947D3*
X-53347D3*
Y-953D3*
D80*
X-16512Y-476D3*
X-15562D3*
X-14612D3*
Y2224D3*
X-16512D3*
D88*
X-19846Y-13654D3*
Y-15554D3*
D62*
X-48106Y8256D3*
Y10156D3*
X-50406Y9206D3*
D84*
X-27784Y2382D3*
X-29684D3*
X-27784Y-158D3*
X-29684D3*
D88*
X-19687Y11749D3*
Y13649D3*
X-47630Y-4128D3*
Y-2228D3*
X-44931Y-2223D3*
Y-4123D3*
D84*
X-7621Y1429D3*
X-5721D3*
X-50964Y5716D3*
X-52864D3*
D88*
X-16988Y-13654D3*
Y-15554D3*
D84*
X-19687Y16194D3*
X-17787D3*
X-6192Y11431D3*
X-8092D3*
X-45248Y7780D3*
X-43349D3*
X-45248Y10479D3*
X-43349D3*
D60*
X-41756Y4604D3*
Y3954D3*
Y3304D3*
Y2654D3*
Y2004D3*
Y1354D3*
Y704D3*
Y54D3*
Y-596D3*
Y-1246D3*
Y-1896D3*
Y-2546D3*
Y-3196D3*
Y-3846D3*
X-34555D3*
X-34556Y-3196D3*
Y-2546D3*
Y-1896D3*
Y-1246D3*
Y-596D3*
Y54D3*
Y704D3*
Y1354D3*
Y2004D3*
Y2654D3*
Y3304D3*
Y3954D3*
Y4604D3*
D54*
X-25085Y5081D3*
Y3811D3*
Y2541D3*
Y1271D3*
X-19685D3*
Y2541D3*
Y3811D3*
Y5081D3*
D52*
X-14765Y8573D3*
Y6273D3*
Y3973D3*
D50*
X-8965Y6273D3*
D62*
X-17464Y13495D3*
Y11595D3*
X-15164Y12545D3*
M02*
